<svg width="16" height="22" viewBox="0 0 16 22" fill="none" xmlns="http://www.w3.org/2000/svg">
<path d="M5.9 16.7143H10.1M2.4 21H13.6C14.3732 21 15 20.3604 15 19.5714V2.42857C15 1.63959 14.3732 1 13.6 1H2.4C1.62681 1 1 1.63959 1 2.42857V19.5714C1 20.3604 1.62681 21 2.4 21Z" stroke="#A25945" stroke-width="1.5"/>
</svg>
